{ 10.0 , 80.0 },
{ 40.0 , 80.0 },
{ INFINITY , INFINITY },
{ 10.0 , 10.0 },
{ 40.0 , 10.0 },
{ 40.0 , 10.0 },
{ 40.0 , 50.0 },
{ 40.0 , 50.0 },
{ 10.0 , 50.0 },
{ 10.0 , 50.0 },
{ 10.0 , 10.0 },
{ 10.0 , 10.0 },
{ INFINITY , INFINITY },
{ 80.0 , 50.0 },
{ 80.0 , 10.0 },
{ INFINITY , INFINITY },
{ 90.0 , 10.0 },
{ 120.0 , 10.0 },
{ 120.0 , 10.0 },
{ 120.0 , 30.0 },
{ 120.0 , 30.0 },
{ 90.0 , 30.0 },
{ 90.0 , 30.0 },
{ 90.0 , 50.0 },
{ 90.0 , 50.0 },
{ 120.0 , 50.0 },
{ INFINITY , INFINITY },
{ 130.0 , 10.0 },
{ 160.0 , 10.0 },
{ 160.0 , 10.0 },
{ 160.0 , 30.0 },
{ 160.0 , 30.0 },
{ 130.0 , 30.0 },
{ INFINITY , INFINITY },
{ 160.0 , 30.0 },
{ 160.0 , 50.0 },
{ 160.0 , 50.0 },
{ 130.0 , 50.0 },
{ INFINITY , INFINITY },
{ 170.0 , 10.0 },
{ 170.0 , 30.0 },
{ 170.0 , 30.0 },
{ 200.0 , 30.0 },
{ INFINITY , INFINITY },
{ 200.0 , 10.0 },
{ 200.0 , 50.0 },
{ INFINITY , INFINITY },
{ 240.0 , 10.0 },
{ 210.0 , 10.0 },
{ 210.0 , 10.0 },
{ 210.0 , 30.0 },
{ 210.0 , 30.0 },
{ 240.0 , 30.0 },
{ 240.0 , 30.0 },
{ 240.0 , 50.0 },
{ 240.0 , 50.0 },
{ 210.0 , 50.0 },
{ INFINITY , INFINITY },
{ 280.0 , 10.0 },
{ 250.0 , 10.0 },
{ 250.0 , 10.0 },
{ 250.0 , 50.0 },
{ 250.0 , 50.0 },
{ 280.0 , 50.0 },
{ 280.0 , 50.0 },
{ 280.0 , 30.0 },
{ 280.0 , 30.0 },
{ 250.0 , 30.0 },
{ INFINITY , INFINITY },
{ 290.0 , 10.0 },
{ 320.0 , 10.0 },
{ 320.0 , 10.0 },
{ 320.0 , 50.0 },
{ INFINITY , INFINITY },
{ 330.0 , 10.0 },
{ 360.0 , 10.0 },
{ 360.0 , 10.0 },
{ 360.0 , 30.0 },
{ 360.0 , 30.0 },
{ 330.0 , 30.0 },
{ 330.0 , 30.0 },
{ 330.0 , 10.0 },
{ INFINITY , INFINITY },
{ 330.0 , 30.0 },
{ 330.0 , 50.0 },
{ 330.0 , 50.0 },
{ 360.0 , 50.0 },
{ 360.0 , 50.0 },
{ 360.0 , 30.0 },
{ INFINITY , INFINITY },
{ 370.0 , 10.0 },
{ 370.0 , 30.0 },
{ 370.0 , 30.0 },
{ 400.0 , 30.0 },
{ 400.0 , 30.0 },
{ 400.0 , 10.0 },
{ 400.0 , 10.0 },
{ 370.0 , 10.0 },
{ 370.0 , 10.0 },
{ INFINITY , INFINITY },
{ 400.0 , 30.0 },
{ 400.0 , 50.0 },
{ INFINITY , INFINITY },
{ 170.0 , 60.0 },
{ 170.0 , 100.0 },
{ 170.0 , 100.0 },
{ 200.0 , 100.0 },
{ INFINITY , INFINITY },
{ 170.0 , 80.0 },
{ 200.0 , 80.0 },
{ INFINITY , INFINITY },
{ 170.0 , 60.0 },
{ 200.0 , 60.0 },
{ INFINITY , INFINITY },
{ 210.0 , 60.0 },
{ 210.0 , 100.0 },
{ INFINITY , INFINITY },
{ 210.0 , 60.0 },
{ 240.0 , 60.0 },
{ INFINITY , INFINITY },
{ 210.0 , 80.0 },
{ 240.0 , 80.0 },
{ INFINITY , INFINITY },
{ 290.0 , 60.0 },
{ 290.0 , 100.0 },
{ INFINITY , INFINITY },
{ 290.0 , 80.0 },
{ 320.0 , 80.0 },
{ INFINITY , INFINITY },
{ 320.0 , 60.0 },
{ 320.0 , 100.0 },
{ INFINITY , INFINITY },
{ 330.0 , 60.0 },
{ 360.0 , 60.0 },
{ INFINITY , INFINITY },
{ 330.0 , 100.0 },
{ 360.0 , 100.0 },
{ INFINITY , INFINITY },
{ 350.0 , 60.0 },
{ 350.0 , 100.0 },
{ INFINITY , INFINITY },
{ 370.0 , 60.0 },
{ 400.0 , 60.0 },
{ INFINITY , INFINITY },
{ 390.0 , 60.0 },
{ 390.0 , 100.0 },
{ 390.0 , 100.0 },
{ 370.0 , 100.0 },
{ INFINITY , INFINITY },
{ 10.0 , 110.0 },
{ 10.0 , 150.0 },
{ INFINITY , INFINITY },
{ 40.0 , 110.0 },
{ 10.0 , 130.0 },
{ INFINITY , INFINITY },
{ 40.0 , 150.0 },
{ 10.0 , 130.0 },
{ INFINITY , INFINITY },
{ 50.0 , 110.0 },
{ 50.0 , 150.0 },
{ 50.0 , 150.0 },
{ 80.0 , 150.0 },
{ INFINITY , INFINITY },
{ 90.0 , 150.0 },
{ 90.0 , 110.0 },
{ 90.0 , 110.0 },
{ 110.0 , 110.0 },
{ 110.0 , 110.0 },
{ 110.0 , 150.0 },
{ INFINITY , INFINITY },
{ 110.0 , 110.0 },
{ 120.0 , 110.0 },
{ 120.0 , 110.0 },
{ 120.0 , 150.0 },
{ INFINITY , INFINITY },
{ 130.0 , 150.0 },
{ 130.0 , 110.0 },
{ 130.0 , 110.0 },
{ 160.0 , 150.0 },
{ 160.0 , 150.0 },
{ 160.0 , 110.0 },
{ INFINITY , INFINITY },
{ 210.0 , 110.0 },
{ 210.0 , 150.0 },
{ INFINITY , INFINITY },
{ 210.0 , 110.0 },
{ 240.0 , 110.0 },
{ 240.0 , 110.0 },
{ 240.0 , 130.0 },
{ 240.0 , 130.0 },
{ 210.0 , 130.0 },
{ INFINITY , INFINITY },
{ 280.0 , 150.0 },
{ 270.0 , 140.0 },
{ INFINITY , INFINITY },
{ 290.0 , 150.0 },
{ 290.0 , 110.0 },
{ 290.0 , 110.0 },
{ 320.0 , 110.0 },
{ 320.0 , 110.0 },
{ 320.0 , 130.0 },
{ 320.0 , 130.0 },
{ 300.0 , 130.0 },
{ 300.0 , 130.0 },
{ 320.0 , 150.0 },
{ INFINITY , INFINITY },
{ 360.0 , 110.0 },
{ 330.0 , 110.0 },
{ 330.0 , 110.0 },
{ 330.0 , 130.0 },
{ 330.0 , 130.0 },
{ 360.0 , 130.0 },
{ 360.0 , 130.0 },
{ 360.0 , 150.0 },
{ 360.0 , 150.0 },
{ 330.0 , 150.0 },
{ INFINITY , INFINITY },
{ 370.0 , 110.0 },
{ 400.0 , 110.0 },
{ INFINITY , INFINITY },
{ 390.0 , 110.0 },
{ 390.0 , 150.0 },
{ INFINITY , INFINITY },
{ 90.0 , 160.0 },
{ 90.0 , 200.0 },
{ 90.0 , 200.0 },
{ 110.0 , 200.0 },
{ 110.0 , 200.0 },
{ 110.0 , 160.0 },
{ INFINITY , INFINITY },
{ 110.0 , 200.0 },
{ 120.0 , 200.0 },
{ 120.0 , 200.0 },
{ 120.0 , 160.0 },
{ INFINITY , INFINITY },
{ 130.0 , 160.0 },
{ 160.0 , 200.0 },
{ INFINITY , INFINITY },
{ 130.0 , 200.0 },
{ 160.0 , 160.0 },
{ INFINITY , INFINITY },
{ 170.0 , 160.0 },
{ 170.0 , 180.0 },
{ 170.0 , 180.0 },
{ 200.0 , 180.0 },
{ 200.0 , 180.0 },
{ 200.0 , 160.0 },
{ INFINITY , INFINITY },
{ 200.0 , 180.0 },
{ 200.0 , 200.0 },
{ 200.0 , 200.0 },
{ 170.0 , 200.0 },
{ INFINITY , INFINITY },
{ 210.0 , 160.0 },
{ 240.0 , 160.0 },
{ 240.0 , 160.0 },
{ 210.0 , 200.0 },
{ 210.0 , 200.0 },
{ 240.0 , 200.0 },
{ INFINITY , INFINITY },
{ 130.0 , 60.0 },
{ 150.0 , 60.0 },
{ 150.0 , 60.0 },
{ 160.0 , 70.0 },
{ 160.0 , 70.0 },
{ 160.0 , 90.0 },
{ 160.0 , 90.0 },
{ 150.0 , 100.0 },
{ 150.0 , 100.0 },
{ 130.0 , 100.0 },
{ 130.0 , 100.0 },
{ 130.0 , 60.0 },
{ INFINITY , INFINITY },
{ 50.0 , 160.0 },
{ 60.0 , 200.0 },
{ 60.0 , 200.0 },
{ 80.0 , 160.0 },
{ INFINITY , INFINITY },
{ 50.0 , 80.0 },
{ 70.0 , 80.0 },
{ 70.0 , 80.0 },
{ 80.0 , 90.0 },
{ 80.0 , 90.0 },
{ 70.0 , 100.0 },
{ 70.0 , 100.0 },
{ 50.0 , 100.0 },
{ 50.0 , 100.0 },
{ 50.0 , 60.0 },
{ 50.0 , 60.0 },
{ 70.0 , 60.0 },
{ 70.0 , 60.0 },
{ 80.0 , 70.0 },
{ 80.0 , 70.0 },
{ 70.0 , 80.0 },
{ INFINITY , INFINITY },
{ 40.0 , 100.0 },
{ 40.0 , 80.0 },
{ 40.0 , 80.0 },
{ 30.0 , 60.0 },
{ 30.0 , 60.0 },
{ 20.0 , 60.0 },
{ 20.0 , 60.0 },
{ 10.0 , 80.0 },
{ 10.0 , 80.0 },
{ 10.0 , 100.0 },
{ INFINITY , INFINITY },
{ 120.0 , 60.0 },
{ 100.0 , 60.0 },
{ 100.0 , 60.0 },
{ 90.0 , 70.0 },
{ 90.0 , 70.0 },
{ 90.0 , 90.0 },
{ 90.0 , 90.0 },
{ 100.0 , 100.0 },
{ 100.0 , 100.0 },
{ 120.0 , 100.0 },
{ INFINITY , INFINITY },
{ 270.0 , 80.0 },
{ 280.0 , 80.0 },
{ 280.0 , 80.0 },
{ 280.0 , 90.0 },
{ 280.0 , 90.0 },
{ 270.0 , 100.0 },
{ 270.0 , 100.0 },
{ 260.0 , 100.0 },
{ 260.0 , 100.0 },
{ 250.0 , 90.0 },
{ 250.0 , 90.0 },
{ 250.0 , 70.0 },
{ 250.0 , 70.0 },
{ 260.0 , 60.0 },
{ 260.0 , 60.0 },
{ 270.0 , 60.0 },
{ 270.0 , 60.0 },
{ 280.0 , 70.0 },
{ INFINITY , INFINITY },
{ 290.0 , 130.0 },
{ 300.0 , 130.0 },
{ INFINITY , INFINITY },
{ 180.0 , 110.0 },
{ 170.0 , 120.0 },
{ 170.0 , 120.0 },
{ 170.0 , 140.0 },
{ 170.0 , 140.0 },
{ 180.0 , 150.0 },
{ 180.0 , 150.0 },
{ 190.0 , 150.0 },
{ 190.0 , 150.0 },
{ 200.0 , 140.0 },
{ 200.0 , 140.0 },
{ 200.0 , 120.0 },
{ 200.0 , 120.0 },
{ 190.0 , 110.0 },
{ 190.0 , 110.0 },
{ 180.0 , 110.0 },
{ INFINITY , INFINITY },
{ 260.0 , 110.0 },
{ 250.0 , 120.0 },
{ 250.0 , 120.0 },
{ 250.0 , 140.0 },
{ 250.0 , 140.0 },
{ 260.0 , 150.0 },
{ 260.0 , 150.0 },
{ 270.0 , 150.0 },
{ 270.0 , 150.0 },
{ 280.0 , 140.0 },
{ 280.0 , 140.0 },
{ 280.0 , 120.0 },
{ 280.0 , 120.0 },
{ 270.0 , 110.0 },
{ 270.0 , 110.0 },
{ 260.0 , 110.0 },
{ 260.0 , 110.0 },
{ INFINITY , INFINITY },
{ 10.0 , 160.0 },
{ 10.0 , 190.0 },
{ 10.0 , 190.0 },
{ 20.0 , 200.0 },
{ 20.0 , 200.0 },
{ 30.0 , 200.0 },
{ 30.0 , 200.0 },
{ 40.0 , 190.0 },
{ 40.0 , 190.0 },
{ 40.0 , 160.0 },
{ INFINITY , INFINITY },
